#########################################################################################
#                                                                                       #
#                #######  #######  ########  ##  ##### ##  #######  ##                  #
#                ##   ##  ##   ##  ## ## ##  ##  ## ## ##  ##   ##  ##                  #
#                ##       ##   ##  ## ## ##  ##  ## ## ##  ##   ##  ##                  #
#                ##  ###  #######  ## ## ##  ##  ## ## ##  #######  ##                  #
#                ##   ##  ##   ##  ##    ##  ##  ## ## ##  ##   ##  ##                  #
#                #######  ##   ##  ##    ##  ##  ## #####  ##   ##  #####               #
#                                                                                       #
#                              _YOUR GAME ON THE TERMINAL_                              #
#                                                                                       #
#                                                                                       #
#                                    @ <- THIS IS YOU                                   #
#                                                                                       #
#                                  * <- THIS IS A COIN                                  #
#                                                                                       #
#                                & <- THIS IS YOUR ENEMY                                #
#                                                                                       #
#                                 ] <- THIS IS THE EXIT                                 #
#                                                                                       #
#                                                                                       #
#                                   ~ KEYBOARD KEYS ~                                   #
#                                                                                       #
#                                        W -> UP                                        #
#                                                                                       #
#                                       A -> LEFT                                       #
#                                                                                       #
#                                       S -> DOWN                                       #
#                                                                                       #
#                                       D -> RIGHT                                      #
#                                                                                       #
#                                                                                       #
#                                         2017                                          #
#                               Universidade de Brasilia                                #
#                                   Igor Aragão Gomes                                   #
#                                                                                       #
#########################################################################################
